…
Finding a Reason
================

Because Asia and Oceania is the major contributor of the global coal consumption, we are going to determine which country is causing the dramatic increase in coal consumption. Let's assume that we are looking for a major contributor in the year 2005.

``` r
# Find Countries that are causing a major coal consumption.
coal_country %>%
  filter(year %in% c(2005)) %>%
  arrange(desc(coal_consumption))
```

    ## # A tibble: 223 x 3
    ##    region         year coal_consumption
    ##    <chr>         <int>            <dbl>
    ##  1 China          2005            48.3 
    ##  2 United States  2005            22.8 
    ##  3 India          2005             8.61
    ##  4 Japan          2005             4.60
    ##  5 Russia         2005             4.29
    ##  6 South Africa   2005             3.81
    ##  7 Germany        2005             3.33
    ##  8 Australia      2005             2.31
    ##  9 Poland         2005             2.19
    ## 10 Korea, South   2005             2.07
    ## # ... with 213 more rows

In this top 10 list, China and United States, by a landlside, are the two major producers of the coal consumption. However, we are looking for Asia and Oceania, so we will filter the data based on this region.

``` r
coal_country %>%
  filter(region %in% c("China","India","Japan","Australia","Korea, South"))
```

    ## # A tibble: 150 x 3
    ##    region        year coal_consumption
    ##    <chr>        <int>            <dbl>
    ##  1 Australia     1980            1.05 
    ##  2 China         1980           12.3  
    ##  3 India         1980            2.09 
    ##  4 Japan         1980            2.10 
    ##  5 Korea, South  1980            0.533
    ##  6 Australia     1981            1.12 
    ##  7 China         1981           12.3  
    ##  8 India         1981            2.45 
    ##  9 Japan         1981            2.28 
    ## 10 Korea, South  1981            0.603
    ## # ... with 140 more rows
…
